<?xml version="1.0" encoding="utf-8"?>
<!-- Generator: Adobe Illustrator 24.0.0, SVG Export Plug-In . SVG Version: 6.00 Build 0)  -->
<svg class="lijnenscreensaver-svg" version="1.1" xmlns="http://www.w3.org/2000/svg" xmlns:xlink="http://www.w3.org/1999/xlink" x="0px" y="0px"
	 viewBox="0 0 1027.4 821.2" style="enable-background:new 0 0 1027.4 821.2;" xml:space="preserve">
<style type="text/css">
	.st0{display:none;}
	.st1{display:inline;}
	.st2{fill:none;stroke:#F2F1E6;stroke-width:0.4;stroke-linecap:round;stroke-miterlimit:10;}
	.st3{fill:none;stroke:#F2F1E6;stroke-linecap:round;stroke-miterlimit:10;}
	.st4{fill:#F2F1E6;}
	.st5{fill:none;stroke:#F2F1E6;stroke-miterlimit:10;}
</style>
<g id="Laag_2" class="st0">
	<rect class="st1" width="1027.4" height="577.9"/>
</g>
<g id="LIJNEN">
	<line class="st2" x1="397.2" y1="336.8" x2="703" y2="449.2"/>
	<line class="st2" x1="919.2" y1="451.7" x2="703" y2="449.2"/>
	<line class="st2" x1="120.4" y1="464.9" x2="397.2" y2="336.8"/>
	<line class="st2" x1="89.3" y1="462.4" x2="397.2" y2="336.8"/>
	<line class="st2" x1="90.4" y1="440.5" x2="397.2" y2="336.8"/>
	<line class="st2" x1="93.2" y1="415.6" x2="397.2" y2="336.8"/>
	<line class="st2" x1="94.7" y1="399.1" x2="397.2" y2="336.8"/>
	<line class="st2" x1="98.5" y1="384.1" x2="397.2" y2="336.8"/>
	<line class="st2" x1="101.4" y1="371.9" x2="397.2" y2="336.8"/>
	<line class="st2" x1="105" y1="359.9" x2="397.2" y2="336.8"/>
	<line class="st2" x1="110.9" y1="346.1" x2="397.2" y2="336.8"/>
	<line class="st2" x1="108.4" y1="335.7" x2="397.2" y2="336.8"/>
	<line class="st2" x1="119.5" y1="323" x2="397.2" y2="336.8"/>
	<line class="st2" x1="126.4" y1="307.3" x2="397.2" y2="336.8"/>
	<line class="st2" x1="132.9" y1="293.5" x2="397.2" y2="336.8"/>
	<line class="st2" x1="141.9" y1="275.9" x2="397.2" y2="336.8"/>
	<line class="st2" x1="153.1" y1="256" x2="397.2" y2="336.8"/>
	<line class="st2" x1="163.3" y1="239.1" x2="397.2" y2="336.8"/>
	<line class="st2" x1="187.8" y1="203.3" x2="397.2" y2="336.8"/>
	<line class="st2" x1="210.8" y1="174.2" x2="397.2" y2="336.8"/>
	<line class="st2" x1="319.2" y1="163.2" x2="397.2" y2="336.8"/>
	<line class="st2" x1="348.9" y1="171.5" x2="397.2" y2="336.8"/>
	<line class="st2" x1="381.9" y1="157.9" x2="397.2" y2="336.8"/>
	<line class="st2" x1="417.8" y1="145.6" x2="397.2" y2="336.8"/>
	<line class="st2" x1="458.2" y1="134.9" x2="397.2" y2="336.8"/>
	<line class="st2" x1="494.7" y1="127.8" x2="397.2" y2="336.8"/>
	<line class="st2" x1="529.2" y1="123.3" x2="397.2" y2="336.8"/>
	<line class="st2" x1="586.4" y1="120.5" x2="397.2" y2="336.8"/>
	<line class="st2" x1="618.7" y1="117.8" x2="397.2" y2="336.8"/>
	<line class="st2" x1="652.1" y1="101.6" x2="397.2" y2="336.8"/>
	<line class="st2" x1="646.4" y1="123.5" x2="397.2" y2="336.8"/>
	<line class="st2" x1="661.1" y1="129.1" x2="397.2" y2="336.8"/>
	<line class="st2" x1="681" y1="128.2" x2="397.2" y2="336.8"/>
	<line class="st2" x1="745.4" y1="142.6" x2="397.2" y2="336.8"/>
	<line class="st2" x1="819.6" y1="169.2" x2="397.2" y2="336.8"/>
	<line class="st2" x1="867.2" y1="192.8" x2="397.2" y2="336.8"/>
	<line class="st2" x1="884" y1="202.4" x2="397.2" y2="336.8"/>
	<line class="st2" x1="896.5" y1="210" x2="397.2" y2="336.8"/>
	<line class="st2" x1="936.7" y1="237.9" x2="397.2" y2="336.8"/>
	<line class="st2" x1="968.1" y1="263.4" x2="397.2" y2="336.8"/>
	<line class="st2" x1="981.5" y1="275.5" x2="397.2" y2="336.8"/>
	<line class="st2" x1="1001.6" y1="295.1" x2="397.2" y2="336.8"/>
	<line class="st2" x1="1012.9" y1="307" x2="397.2" y2="336.8"/>
	<line class="st2" x1="1023.4" y1="315.5" x2="919.2" y2="451.7"/>
	<line class="st2" x1="142.2" y1="152.7" x2="319.2" y2="163.2"/>
	<line class="st2" x1="153.3" y1="140.3" x2="319.2" y2="163.2"/>
	<line class="st2" x1="164.6" y1="128.1" x2="319.2" y2="163.2"/>
	<line class="st2" x1="176.3" y1="116.2" x2="319.2" y2="163.2"/>
	<line class="st2" x1="188.2" y1="104.5" x2="319.2" y2="163.2"/>
	<line class="st2" x1="200.3" y1="93.2" x2="319.2" y2="163.2"/>
	<line class="st2" x1="212.7" y1="82.2" x2="319.2" y2="163.2"/>
	<line class="st2" x1="285.5" y1="26.7" x2="319.2" y2="163.2"/>
	<line class="st2" x1="734.2" y1="12.7" x2="745.4" y2="142.6"/>
	<line class="st2" x1="783.8" y1="25.1" x2="745.4" y2="142.6"/>
	<line class="st2" x1="828.8" y1="32.6" x2="745.4" y2="142.6"/>
	<line class="st2" x1="869.1" y1="48.6" x2="819.6" y2="169.2"/>
	<line class="st2" x1="909.1" y1="67.4" x2="819.6" y2="169.2"/>
	<circle class="st3" cx="120.4" cy="464.9" r="6.6"/>
	<circle class="st3" cx="89.3" cy="462.4" r="6.2"/>
	<circle class="st3" cx="93.2" cy="415.6" r="4.6"/>
	<circle class="st3" cx="98.5" cy="384.1" r="5.1"/>
	<circle class="st3" cx="101.4" cy="371.9" r="3.6"/>
	<circle class="st3" cx="105" cy="359.9" r="3.4"/>
	<circle class="st3" cx="108.4" cy="335.7" r="4.1"/>
	<circle class="st3" cx="119.5" cy="323" r="5.2"/>
	<circle class="st3" cx="132.9" cy="293.5" r="6.3"/>
	<circle class="st3" cx="141.9" cy="275.9" r="4.4"/>
	<circle class="st3" cx="153.1" cy="256" r="7.1"/>
	<circle class="st3" cx="153.1" cy="256" r="4"/>
	<circle class="st3" cx="163.3" cy="239.1" r="4.8"/>
	<circle class="st3" cx="210.8" cy="173.7" r="5"/>
	<circle class="st3" cx="153.3" cy="140.3" r="4.5"/>
	<circle class="st3" cx="164.6" cy="128.1" r="5.4"/>
	<circle class="st3" cx="176.3" cy="116.2" r="3.5"/>
	<circle class="st3" cx="200.3" cy="93.2" r="5.7"/>
	<circle class="st3" cx="212.7" cy="82.2" r="3.5"/>
	<circle class="st3" cx="285.5" cy="26.7" r="7.3"/>
	<circle class="st3" cx="348.9" cy="171.5" r="4.7"/>
	<circle class="st3" cx="417.8" cy="145.6" r="6.3"/>
	<circle class="st3" cx="458.2" cy="134.9" r="5.1"/>
	<circle class="st3" cx="494.7" cy="127.8" r="4.5"/>
	<circle class="st3" cx="586.4" cy="120.5" r="6"/>
	<circle class="st3" cx="652.1" cy="101.6" r="5.1"/>
	<circle class="st3" cx="646.4" cy="123.5" r="5.2"/>
	<circle class="st3" cx="661.1" cy="129.1" r="4.6"/>
	<circle class="st3" cx="681" cy="128.2" r="3.7"/>
	<circle class="st3" cx="734.2" cy="12.7" r="5.6"/>
	<circle class="st3" cx="828.8" cy="32.6" r="5.7"/>
	<circle class="st3" cx="869.1" cy="48.6" r="8.1"/>
	<circle class="st3" cx="909.1" cy="67.4" r="5.8"/>
	<circle class="st3" cx="867.2" cy="192.8" r="5.5"/>
	<circle class="st3" cx="884" cy="202.4" r="4.1"/>
	<circle class="st3" cx="897" cy="210" r="7.6"/>
	<circle class="st3" cx="936.7" cy="237.9" r="7.7"/>
	<circle class="st3" cx="981.5" cy="275.5" r="6.5"/>
	<circle class="st3" cx="1001.6" cy="295.1" r="5"/>
	<circle class="st3" cx="1012.9" cy="307" r="5.3"/>
	<circle class="st3" cx="1023.4" cy="315.5" r="4"/>
	<circle class="st3" cx="703" cy="449.2" r="5.4"/>
	<circle class="st3" cx="396.7" cy="336.6" r="10.9"/>
	<circle class="st3" cx="745.4" cy="142.6" r="7.7"/>
	<circle class="st3" cx="623.7" cy="356.9" r="9.9"/>
	<circle class="st3" cx="286" cy="384.1" r="5.9"/>
	<circle class="st3" cx="370.6" cy="245.6" r="7.7"/>
	<circle class="st3" cx="319.2" cy="163.2" r="10.4"/>
	<circle class="st4" cx="760.8" cy="269.6" r="4.8"/>
	<circle class="st4" cx="819.6" cy="169.2" r="5.2"/>
	<circle class="st4" cx="968.1" cy="263.4" r="5.2"/>
	<circle class="st4" cx="783.8" cy="25.1" r="7.1"/>
	<circle class="st4" cx="618.7" cy="117.8" r="3.3"/>
	<circle class="st4" cx="529.1" cy="123.5" r="5.7"/>
	<circle class="st4" cx="381.9" cy="157.9" r="6"/>
	<circle class="st4" cx="188.2" cy="104.5" r="5.6"/>
	<circle class="st4" cx="142.2" cy="152.7" r="3.9"/>
	<circle class="st4" cx="186.8" cy="203.3" r="4.8"/>
	<circle class="st4" cx="126.4" cy="307.3" r="3.6"/>
	<circle class="st4" cx="110.9" cy="346.1" r="3.5"/>
	<circle class="st4" cx="90.4" cy="440.5" r="5.9"/>
	<circle class="st5" cx="745.4" cy="142.6" r="10.7"/>
	<circle class="st5" cx="661.1" cy="129.1" r="7.9"/>
	<circle class="st5" cx="458.2" cy="134.9" r="8.4"/>
	<circle class="st5" cx="417.8" cy="145.6" r="3.3"/>
</g>
<g id="LIJNEN2">
	<line class="st2" x1="683.4" y1="390.4" x2="576.8" y2="55.9"/>
	<line class="st2" x1="857.1" y1="393.2" x2="576.8" y2="55.9"/>
	<line class="st2" x1="312.5" y1="491" x2="682.9" y2="390.2"/>
	<line class="st2" x1="246.9" y1="460.4" x2="683.4" y2="390.4"/>
	<line class="st2" x1="171.4" y1="449.5" x2="683.4" y2="390.4"/>
	<line class="st2" x1="176.2" y1="427.4" x2="683.4" y2="390.4"/>
	<line class="st2" x1="177.8" y1="411" x2="683.4" y2="390.4"/>
	<line class="st2" x1="181.6" y1="395.9" x2="683.4" y2="390.4"/>
	<line class="st2" x1="184.5" y1="383.8" x2="683.4" y2="390.4"/>
	<line class="st2" x1="188" y1="371.7" x2="683.4" y2="390.4"/>
	<line class="st2" x1="193.9" y1="358" x2="683.4" y2="390.4"/>
	<line class="st2" x1="191.4" y1="347.6" x2="683.4" y2="390.4"/>
	<line class="st2" x1="202.6" y1="334.9" x2="683.4" y2="390.4"/>
	<line class="st2" x1="209.5" y1="319.2" x2="683.4" y2="390.4"/>
	<line class="st2" x1="216" y1="305.3" x2="683.4" y2="390.4"/>
	<line class="st2" x1="225" y1="287.7" x2="683.4" y2="390.4"/>
	<line class="st2" x1="236.1" y1="267.8" x2="683.4" y2="390.4"/>
	<line class="st2" x1="246.3" y1="251" x2="683.4" y2="390.4"/>
	<line class="st2" x1="270.8" y1="215.1" x2="683.4" y2="390.4"/>
	<line class="st2" x1="293.8" y1="186.1" x2="683.4" y2="390.4"/>
	<line class="st2" x1="479.9" y1="184.8" x2="683.4" y2="390.4"/>
	<line class="st2" x1="683.4" y1="390.4" x2="449" y2="439.9"/>
	<line class="st2" x1="683.4" y1="390.4" x2="482" y2="453.6"/>
	<line class="st2" x1="683.4" y1="390.4" x2="517.9" y2="465.8"/>
	<line class="st2" x1="683.4" y1="390.4" x2="558.3" y2="476.6"/>
	<line class="st2" x1="683.4" y1="390.4" x2="594.8" y2="483.6"/>
	<line class="st2" x1="683.4" y1="390.4" x2="629.3" y2="488.1"/>
	<line class="st2" x1="683.4" y1="390.4" x2="636.8" y2="468.1"/>
	<line class="st2" x1="683.4" y1="390.4" x2="669.1" y2="470.7"/>
	<line class="st2" x1="683.4" y1="390.4" x2="702.4" y2="487"/>
	<line class="st2" x1="683.4" y1="390.4" x2="696.7" y2="465"/>
	<line class="st2" x1="683.4" y1="390.4" x2="711.5" y2="459.5"/>
	<line class="st2" x1="683.4" y1="390.4" x2="731.3" y2="460.4"/>
	<line class="st2" x1="683.3" y1="156.3" x2="683.4" y2="390.4"/>
	<line class="st2" x1="757.4" y1="182.9" x2="683.4" y2="390.4"/>
	<line class="st2" x1="805" y1="206.5" x2="683.4" y2="390.4"/>
	<line class="st2" x1="821.9" y1="216.1" x2="683.4" y2="390.4"/>
	<line class="st2" x1="834.3" y1="223.7" x2="683.4" y2="390.4"/>
	<line class="st2" x1="874.5" y1="251.6" x2="683.4" y2="390.4"/>
	<line class="st2" x1="905.9" y1="277.1" x2="683.4" y2="390.4"/>
	<line class="st2" x1="919.3" y1="289.2" x2="683.4" y2="390.4"/>
	<line class="st2" x1="939.4" y1="308.8" x2="683.4" y2="390.4"/>
	<line class="st2" x1="950.7" y1="320.7" x2="683.4" y2="390.4"/>
	<line class="st2" x1="961.2" y1="329.2" x2="857.1" y2="393.2"/>
	<line class="st2" x1="302.9" y1="174.3" x2="479.9" y2="184.8"/>
	<line class="st2" x1="314" y1="161.9" x2="479.9" y2="184.8"/>
	<line class="st2" x1="325.3" y1="149.7" x2="479.9" y2="184.8"/>
	<line class="st2" x1="336.9" y1="137.8" x2="479.9" y2="184.8"/>
	<line class="st2" x1="348.8" y1="126.2" x2="479.9" y2="184.8"/>
	<line class="st2" x1="361" y1="114.8" x2="479.9" y2="184.8"/>
	<line class="st2" x1="373.4" y1="103.8" x2="479.9" y2="184.8"/>
	<line class="st2" x1="446.2" y1="48.4" x2="479.9" y2="184.8"/>
	<line class="st2" x1="672.1" y1="19.3" x2="683.3" y2="156.3"/>
	<line class="st2" x1="721.6" y1="31.7" x2="683.3" y2="156.3"/>
	<line class="st2" x1="766.6" y1="46.3" x2="683.3" y2="156.3"/>
	<line class="st2" x1="807" y1="62.3" x2="757.4" y2="182.9"/>
	<line class="st2" x1="846.9" y1="81.1" x2="757.4" y2="182.9"/>
	<circle class="st3" cx="314" cy="491" r="6.6"/>
	<circle class="st3" cx="246.9" cy="460.4" r="6.2"/>
	<circle class="st3" cx="176.2" cy="427.4" r="4.6"/>
	<circle class="st3" cx="181.6" cy="395.9" r="5.1"/>
	<circle class="st3" cx="184.5" cy="383.8" r="3.6"/>
	<circle class="st3" cx="188" cy="371.7" r="3.4"/>
	<circle class="st3" cx="191.4" cy="347.6" r="4.1"/>
	<circle class="st3" cx="202.6" cy="334.9" r="5.2"/>
	<circle class="st3" cx="216" cy="305.3" r="6.3"/>
	<circle class="st3" cx="225" cy="287.7" r="4.4"/>
	<circle class="st3" cx="236.1" cy="267.8" r="7.1"/>
	<circle class="st3" cx="236.1" cy="267.8" r="4"/>
	<circle class="st3" cx="246.3" cy="251" r="4.8"/>
	<circle class="st3" cx="293.8" cy="185.5" r="5"/>
	<circle class="st3" cx="314" cy="161.9" r="4.5"/>
	<circle class="st3" cx="325.3" cy="149.7" r="5.4"/>
	<circle class="st3" cx="336.9" cy="137.8" r="3.5"/>
	<circle class="st3" cx="361" cy="114.8" r="5.7"/>
	<circle class="st3" cx="373.4" cy="103.8" r="3.5"/>
	<circle class="st3" cx="446.2" cy="48.4" r="7.3"/>
	<circle class="st3" cx="449" cy="439.9" r="4.7"/>
	<circle class="st3" cx="517.9" cy="465.8" r="6.3"/>
	<circle class="st3" cx="558.3" cy="476.6" r="5.1"/>
	<circle class="st3" cx="594.8" cy="483.6" r="4.5"/>
	<circle class="st3" cx="636.8" cy="468.1" r="6"/>
	<circle class="st3" cx="702.4" cy="487" r="5.1"/>
	<circle class="st3" cx="696.7" cy="465" r="5.2"/>
	<circle class="st3" cx="711.5" cy="459.5" r="4.6"/>
	<circle class="st3" cx="731.3" cy="460.4" r="3.7"/>
	<circle class="st3" cx="672.1" cy="19.3" r="5.6"/>
	<circle class="st3" cx="766.6" cy="46.3" r="5.7"/>
	<circle class="st3" cx="807" cy="62.3" r="8.1"/>
	<circle class="st3" cx="846.9" cy="81.1" r="5.8"/>
	<circle class="st3" cx="805" cy="206.5" r="5.5"/>
	<circle class="st3" cx="821.9" cy="216.1" r="4.1"/>
	<circle class="st3" cx="834.9" cy="223.7" r="7.6"/>
	<circle class="st3" cx="874.5" cy="251.6" r="7.7"/>
	<circle class="st3" cx="919.3" cy="289.2" r="6.5"/>
	<circle class="st3" cx="939.4" cy="308.8" r="5"/>
	<circle class="st3" cx="950.7" cy="320.7" r="5.3"/>
	<circle class="st3" cx="961.2" cy="329.2" r="4"/>
	<circle class="st3" cx="576.8" cy="55.9" r="5.4"/>
	<circle class="st3" cx="682.9" cy="390.2" r="10.9"/>
	<circle class="st3" cx="683.3" cy="156.3" r="7.7"/>
	<circle class="st3" cx="596.2" cy="448.4" r="9.9"/>
	<circle class="st3" cx="303.1" cy="412.2" r="5.9"/>
	<circle class="st3" cx="445.1" cy="158.9" r="7.7"/>
	<circle class="st3" cx="479.9" cy="184.8" r="10.4"/>
	<circle class="st4" cx="683.4" cy="264" r="4.8"/>
	<circle class="st4" cx="757.4" cy="182.9" r="5.2"/>
	<circle class="st4" cx="905.9" cy="277.1" r="5.2"/>
	<circle class="st4" cx="721.6" cy="31.7" r="7.1"/>
	<circle class="st4" cx="669.1" cy="470.7" r="3.3"/>
	<circle class="st4" cx="629.2" cy="487.9" r="5.7"/>
	<circle class="st4" cx="482" cy="453.6" r="6"/>
	<circle class="st4" cx="348.8" cy="126.2" r="5.6"/>
	<circle class="st4" cx="302.9" cy="174.3" r="3.9"/>
	<circle class="st4" cx="269.8" cy="215.1" r="4.8"/>
	<circle class="st4" cx="209.5" cy="319.2" r="3.6"/>
	<circle class="st4" cx="193.9" cy="358" r="3.5"/>
	<circle class="st4" cx="171.4" cy="449.5" r="5.9"/>
	<circle class="st5" cx="683.3" cy="156.3" r="10.7"/>
	<circle class="st5" cx="711.5" cy="459.5" r="7.9"/>
	<circle class="st5" cx="558.3" cy="476.6" r="8.4"/>
	<circle class="st5" cx="517.9" cy="465.8" r="3.3"/>
</g>
<g id="LIJNEN3">
	<line class="st2" x1="364.5" y1="433" x2="618.9" y2="338.3"/>
	<line class="st2" x1="364.5" y1="433" x2="96.8" y2="453.2"/>
	<line class="st2" x1="618.9" y1="338.3" x2="181.9" y2="396.8"/>
	<line class="st2" x1="618.9" y1="338.3" x2="185.9" y2="332.9"/>
	<line class="st2" x1="618.9" y1="338.3" x2="981.7" y2="471.5"/>
	<line class="st2" x1="618.9" y1="338.3" x2="967.1" y2="412.2"/>
	<line class="st2" x1="618.9" y1="338.3" x2="965.6" y2="395.8"/>
	<line class="st2" x1="618.9" y1="338.3" x2="961.8" y2="380.7"/>
	<line class="st2" x1="618.9" y1="338.3" x2="958.9" y2="368.6"/>
	<line class="st2" x1="618.9" y1="338.3" x2="955.3" y2="356.5"/>
	<line class="st2" x1="618.9" y1="338.3" x2="949.5" y2="342.8"/>
	<line class="st2" x1="618.9" y1="338.3" x2="951.9" y2="332.4"/>
	<line class="st2" x1="618.9" y1="338.3" x2="940.8" y2="319.7"/>
	<line class="st2" x1="618.9" y1="338.3" x2="933.9" y2="304"/>
	<line class="st2" x1="618.9" y1="338.3" x2="927.4" y2="290.1"/>
	<line class="st2" x1="618.9" y1="338.3" x2="918.4" y2="272.6"/>
	<line class="st2" x1="618.9" y1="338.3" x2="907.2" y2="252.6"/>
	<line class="st2" x1="618.9" y1="338.3" x2="897" y2="235.8"/>
	<line class="st2" x1="618.9" y1="338.3" x2="872.5" y2="199.9"/>
	<line class="st2" x1="618.9" y1="338.3" x2="849.5" y2="170.9"/>
	<line class="st2" x1="618.9" y1="338.3" x2="839.5" y2="148.4"/>
	<line class="st2" x1="618.9" y1="338.3" x2="667.1" y2="173"/>
	<line class="st2" x1="618.9" y1="338.3" x2="634.2" y2="159.3"/>
	<line class="st2" x1="618.9" y1="338.3" x2="598.2" y2="147.1"/>
	<line class="st2" x1="618.9" y1="338.3" x2="557.8" y2="136.3"/>
	<line class="st2" x1="618.9" y1="338.3" x2="521.4" y2="129.3"/>
	<line class="st2" x1="618.9" y1="338.3" x2="486.9" y2="124.8"/>
	<line class="st2" x1="618.9" y1="338.3" x2="429.6" y2="121.9"/>
	<line class="st2" x1="618.9" y1="338.3" x2="397.3" y2="119.3"/>
	<line class="st2" x1="618.9" y1="338.3" x2="364" y2="103"/>
	<line class="st2" x1="618.9" y1="338.3" x2="369.7" y2="125"/>
	<line class="st2" x1="618.9" y1="338.3" x2="355" y2="130.5"/>
	<line class="st2" x1="618.9" y1="338.3" x2="335.1" y2="129.6"/>
	<line class="st2" x1="618.9" y1="338.3" x2="270.6" y2="144"/>
	<line class="st2" x1="618.9" y1="338.3" x2="196.5" y2="170.7"/>
	<line class="st2" x1="618.9" y1="338.3" x2="148.9" y2="194.2"/>
	<line class="st2" x1="618.9" y1="338.3" x2="132" y2="203.9"/>
	<line class="st2" x1="618.9" y1="338.3" x2="119.6" y2="211.5"/>
	<line class="st2" x1="618.9" y1="338.3" x2="79.4" y2="239.3"/>
	<line class="st2" x1="618.9" y1="338.3" x2="48" y2="264.9"/>
	<line class="st2" x1="618.9" y1="338.3" x2="34.6" y2="276.9"/>
	<line class="st2" x1="618.9" y1="338.3" x2="34.5" y2="296.5"/>
	<line class="st2" x1="618.9" y1="338.3" x2="23.2" y2="308.4"/>
	<line class="st2" x1="96.8" y1="453.2" x2="12.7" y2="317"/>
	<line class="st2" x1="839.5" y1="148.4" x2="1016.5" y2="138"/>
	<line class="st2" x1="839.5" y1="148.4" x2="1005.4" y2="125.5"/>
	<line class="st2" x1="839.5" y1="148.4" x2="994.1" y2="113.4"/>
	<line class="st2" x1="839.5" y1="148.4" x2="982.4" y2="101.4"/>
	<line class="st2" x1="839.5" y1="148.4" x2="970.5" y2="89.8"/>
	<line class="st2" x1="839.5" y1="148.4" x2="958.4" y2="78.4"/>
	<line class="st2" x1="839.5" y1="148.4" x2="946" y2="67.4"/>
	<line class="st2" x1="839.5" y1="148.4" x2="865.8" y2="24.3"/>
	<line class="st2" x1="270.6" y1="144" x2="296.2" y2="51.2"/>
	<line class="st2" x1="270.6" y1="144" x2="246.6" y2="63.6"/>
	<line class="st2" x1="270.6" y1="144" x2="187.3" y2="34.1"/>
	<line class="st2" x1="196.5" y1="170.7" x2="146.9" y2="50.1"/>
	<line class="st2" x1="196.5" y1="170.7" x2="107" y2="68.9"/>
	<circle class="st3" cx="181.9" cy="396.8" r="6.6"/>
	<circle class="st3" cx="185.9" cy="332.9" r="6.2"/>
	<circle class="st3" cx="967.1" cy="412.2" r="4.6"/>
	<circle class="st3" cx="961.8" cy="380.7" r="5.1"/>
	<circle class="st3" cx="958.9" cy="368.6" r="3.6"/>
	<circle class="st3" cx="955.3" cy="356.5" r="3.4"/>
	<circle class="st3" cx="951.9" cy="332.4" r="4.1"/>
	<circle class="st3" cx="940.8" cy="319.7" r="5.2"/>
	<circle class="st3" cx="927.4" cy="290.1" r="6.3"/>
	<circle class="st3" cx="918.4" cy="272.6" r="4.4"/>
	<circle class="st3" cx="907.2" cy="252.6" r="7.1"/>
	<circle class="st3" cx="907.2" cy="252.6" r="4"/>
	<circle class="st3" cx="897" cy="235.8" r="4.8"/>
	<circle class="st3" cx="849.5" cy="170.4" r="5"/>
	<circle class="st3" cx="1005.4" cy="125.5" r="4.5"/>
	<circle class="st3" cx="994.1" cy="113.4" r="5.4"/>
	<circle class="st3" cx="982.4" cy="101.4" r="3.5"/>
	<circle class="st3" cx="958.4" cy="78.4" r="5.7"/>
	<circle class="st3" cx="946" cy="67.4" r="3.5"/>
	<circle class="st3" cx="865.8" cy="24.3" r="7.3"/>
	<circle class="st3" cx="667.1" cy="173" r="4.7"/>
	<circle class="st3" cx="598.2" cy="147.1" r="6.3"/>
	<circle class="st3" cx="557.8" cy="136.3" r="5.1"/>
	<circle class="st3" cx="521.4" cy="129.3" r="4.5"/>
	<circle class="st3" cx="429.6" cy="121.9" r="6"/>
	<circle class="st3" cx="364" cy="103" r="5.1"/>
	<circle class="st3" cx="369.7" cy="125" r="5.2"/>
	<circle class="st3" cx="355" cy="130.5" r="4.6"/>
	<circle class="st3" cx="335.1" cy="129.6" r="3.7"/>
	<circle class="st3" cx="296.2" cy="51.2" r="5.6"/>
	<circle class="st3" cx="187.3" cy="34.1" r="5.7"/>
	<circle class="st3" cx="146.9" cy="50.1" r="8.1"/>
	<circle class="st3" cx="107" cy="68.9" r="5.8"/>
	<circle class="st3" cx="148.9" cy="194.2" r="5.5"/>
	<circle class="st3" cx="132" cy="203.9" r="4.1"/>
	<circle class="st3" cx="119.1" cy="211.5" r="7.6"/>
	<circle class="st3" cx="79.4" cy="239.3" r="7.7"/>
	<circle class="st3" cx="34.6" cy="276.9" r="6.5"/>
	<circle class="st3" cx="34.5" cy="296.5" r="5"/>
	<circle class="st3" cx="23.2" cy="308.4" r="5.3"/>
	<circle class="st3" cx="12.7" cy="317" r="4"/>
	<circle class="st3" cx="364.5" cy="433" r="5.4"/>
	<circle class="st3" cx="619.4" cy="338" r="10.9"/>
	<circle class="st3" cx="270.6" cy="144" r="7.7"/>
	<circle class="st3" cx="486.9" cy="593.1" r="9.9"/>
	<circle class="st3" cx="774.3" cy="380.7" r="5.9"/>
	<circle class="st3" cx="645.5" cy="247" r="7.7"/>
	<circle class="st3" cx="839.5" cy="148.4" r="10.4"/>
	<circle class="st4" cx="255.3" cy="271.1" r="4.8"/>
	<circle class="st4" cx="196.5" cy="170.7" r="5.2"/>
	<circle class="st4" cx="48" cy="264.9" r="5.2"/>
	<circle class="st4" cx="246.6" cy="63.6" r="7.1"/>
	<circle class="st4" cx="397.3" cy="119.3" r="3.3"/>
	<circle class="st4" cx="487" cy="125" r="5.7"/>
	<circle class="st4" cx="634.2" cy="159.3" r="6"/>
	<circle class="st4" cx="970.5" cy="89.8" r="5.6"/>
	<circle class="st4" cx="1016.5" cy="138" r="3.9"/>
	<circle class="st4" cx="873.5" cy="199.9" r="4.8"/>
	<circle class="st4" cx="933.9" cy="304" r="3.6"/>
	<circle class="st4" cx="949.5" cy="342.8" r="3.5"/>
	<circle class="st4" cx="981.7" cy="471.5" r="5.9"/>
	<circle class="st5" cx="270.6" cy="144" r="10.7"/>
	<circle class="st5" cx="355" cy="130.5" r="7.9"/>
	<circle class="st5" cx="557.8" cy="136.3" r="8.4"/>
	<circle class="st5" cx="598.2" cy="147.1" r="3.3"/>
</g>
<g id="LIJNEN4">
	<line class="st2" x1="454.6" y1="63" x2="592" y2="271.2"/>
	<line class="st2" x1="456" y1="64.6" x2="175.8" y2="474.2"/>
	<line class="st2" x1="593.5" y1="272.8" x2="554.4" y2="450.8"/>
	<line class="st2" x1="593.5" y1="272.8" x2="558.4" y2="386.8"/>
	<line class="st2" x1="593.5" y1="272.8" x2="553.7" y2="309"/>
	<line class="st2" x1="593.5" y1="272.8" x2="856.6" y2="436.2"/>
	<line class="st2" x1="593.5" y1="272.8" x2="855" y2="419.8"/>
	<line class="st2" x1="593.5" y1="272.8" x2="851.2" y2="404.7"/>
	<line class="st2" x1="593.5" y1="272.8" x2="848.3" y2="392.5"/>
	<line class="st2" x1="593.5" y1="272.8" x2="844.8" y2="380.5"/>
	<line class="st2" x1="593.5" y1="272.8" x2="838.9" y2="366.7"/>
	<line class="st2" x1="593.5" y1="272.8" x2="841.4" y2="356.4"/>
	<line class="st2" x1="593.5" y1="272.8" x2="830.3" y2="343.6"/>
	<line class="st2" x1="593.5" y1="272.8" x2="823.4" y2="327.9"/>
	<line class="st2" x1="593.5" y1="272.8" x2="816.8" y2="314.1"/>
	<line class="st2" x1="593.5" y1="272.8" x2="807.8" y2="296.5"/>
	<line class="st2" x1="593.5" y1="272.8" x2="796.7" y2="276.6"/>
	<line class="st2" x1="593.5" y1="272.8" x2="786.5" y2="259.7"/>
	<line class="st2" x1="593.5" y1="272.8" x2="762" y2="223.9"/>
	<line class="st2" x1="593.5" y1="272.8" x2="739" y2="194.8"/>
	<line class="st2" x1="593.5" y1="272.8" x2="582.9" y2="163.5"/>
	<line class="st2" x1="417.9" y1="399.7" x2="593.5" y2="272.8"/>
	<line class="st2" x1="384.9" y1="413.3" x2="593.5" y2="272.8"/>
	<line class="st2" x1="349" y1="425.5" x2="593.5" y2="272.8"/>
	<line class="st2" x1="308.6" y1="436.3" x2="593.5" y2="272.8"/>
	<line class="st2" x1="272.1" y1="443.3" x2="593.5" y2="272.8"/>
	<line class="st2" x1="237.6" y1="447.8" x2="593.5" y2="272.8"/>
	<line class="st2" x1="180.4" y1="450.7" x2="593.5" y2="272.8"/>
	<line class="st2" x1="148.1" y1="453.4" x2="593.5" y2="272.8"/>
	<line class="st2" x1="114.7" y1="469.6" x2="593.5" y2="272.8"/>
	<line class="st2" x1="120.4" y1="447.6" x2="593.5" y2="272.8"/>
	<line class="st2" x1="105.7" y1="442.1" x2="593.5" y2="272.8"/>
	<line class="st2" x1="85.8" y1="443" x2="593.5" y2="272.8"/>
	<line class="st2" x1="593.5" y1="272.8" x2="349.6" y2="165"/>
	<line class="st2" x1="593.5" y1="272.8" x2="275.4" y2="191.7"/>
	<line class="st2" x1="593.5" y1="272.8" x2="227.8" y2="215.2"/>
	<line class="st2" x1="593.5" y1="272.8" x2="210.9" y2="224.9"/>
	<line class="st2" x1="593.5" y1="272.8" x2="198.5" y2="232.5"/>
	<line class="st2" x1="593.5" y1="272.8" x2="158.3" y2="260.3"/>
	<line class="st2" x1="593.5" y1="272.8" x2="126.9" y2="285.9"/>
	<line class="st2" x1="593.5" y1="272.8" x2="113.5" y2="297.9"/>
	<line class="st2" x1="593.5" y1="272.8" x2="93.4" y2="317.5"/>
	<line class="st2" x1="593.5" y1="272.8" x2="82.1" y2="329.4"/>
	<line class="st2" x1="175.8" y1="474.2" x2="71.6" y2="338"/>
	<line class="st2" x1="582.9" y1="163.5" x2="729.9" y2="183.1"/>
	<line class="st2" x1="582.9" y1="163.5" x2="718.9" y2="170.7"/>
	<line class="st2" x1="582.9" y1="163.5" x2="707.5" y2="158.5"/>
	<line class="st2" x1="582.9" y1="163.5" x2="695.9" y2="146.6"/>
	<line class="st2" x1="582.9" y1="163.5" x2="684" y2="134.9"/>
	<line class="st2" x1="582.9" y1="163.5" x2="671.8" y2="123.6"/>
	<line class="st2" x1="582.9" y1="163.5" x2="659.4" y2="112.6"/>
	<line class="st2" x1="582.9" y1="163.5" x2="586.6" y2="57.1"/>
	<line class="st2" x1="349.6" y1="165" x2="360.8" y2="28"/>
	<line class="st2" x1="349.6" y1="165" x2="311.2" y2="40.4"/>
	<line class="st2" x1="349.6" y1="165" x2="266.2" y2="55.1"/>
	<line class="st2" x1="275.4" y1="191.7" x2="225.9" y2="71.1"/>
	<line class="st2" x1="275.4" y1="191.7" x2="185.9" y2="89.9"/>
	<circle class="st3" cx="554.4" cy="450.8" r="6.6"/>
	<circle class="st3" cx="558.4" cy="386.8" r="6.2"/>
	<circle class="st3" cx="856.6" cy="436.2" r="4.6"/>
	<circle class="st3" cx="851.2" cy="404.7" r="5.1"/>
	<circle class="st3" cx="848.3" cy="392.5" r="3.6"/>
	<circle class="st3" cx="844.8" cy="380.5" r="3.4"/>
	<circle class="st3" cx="841.4" cy="356.4" r="4.1"/>
	<circle class="st3" cx="830.3" cy="343.6" r="5.2"/>
	<circle class="st3" cx="816.8" cy="314.1" r="6.3"/>
	<circle class="st3" cx="807.8" cy="296.5" r="4.4"/>
	<circle class="st3" cx="796.7" cy="276.6" r="7.1"/>
	<circle class="st3" cx="796.7" cy="276.6" r="4"/>
	<circle class="st3" cx="786.5" cy="259.7" r="4.8"/>
	<circle class="st3" cx="739" cy="194.3" r="5"/>
	<circle class="st3" cx="718.9" cy="170.7" r="4.5"/>
	<circle class="st3" cx="707.5" cy="158.5" r="5.4"/>
	<circle class="st3" cx="695.9" cy="146.6" r="3.5"/>
	<circle class="st3" cx="671.8" cy="123.6" r="5.7"/>
	<circle class="st3" cx="659.4" cy="112.6" r="3.5"/>
	<circle class="st3" cx="586.6" cy="57.1" r="7.3"/>
	<circle class="st3" cx="417.9" cy="399.7" r="4.7"/>
	<circle class="st3" cx="349" cy="425.5" r="6.3"/>
	<circle class="st3" cx="308.6" cy="436.3" r="5.1"/>
	<circle class="st3" cx="272.1" cy="443.3" r="4.5"/>
	<circle class="st3" cx="180.4" cy="450.7" r="6"/>
	<circle class="st3" cx="114.7" cy="469.6" r="5.1"/>
	<circle class="st3" cx="120.4" cy="447.6" r="5.2"/>
	<circle class="st3" cx="105.7" cy="442.1" r="4.6"/>
	<circle class="st3" cx="85.8" cy="443" r="3.7"/>
	<circle class="st3" cx="360.8" cy="28" r="5.6"/>
	<circle class="st3" cx="266.2" cy="55.1" r="5.7"/>
	<circle class="st3" cx="225.9" cy="71.1" r="8.1"/>
	<circle class="st3" cx="185.9" cy="89.9" r="5.8"/>
	<circle class="st3" cx="227.8" cy="215.2" r="5.5"/>
	<circle class="st3" cx="210.9" cy="224.9" r="4.1"/>
	<circle class="st3" cx="198" cy="232.5" r="7.6"/>
	<circle class="st3" cx="158.3" cy="260.3" r="7.7"/>
	<circle class="st3" cx="113.5" cy="297.9" r="6.5"/>
	<circle class="st3" cx="93.4" cy="317.5" r="5"/>
	<circle class="st3" cx="82.1" cy="329.4" r="5.3"/>
	<circle class="st3" cx="71.6" cy="338" r="4"/>
	<circle class="st3" cx="456" cy="64.6" r="5.4"/>
	<circle class="st3" cx="594" cy="272.6" r="10.9"/>
	<circle class="st3" cx="349.6" cy="165" r="7.7"/>
	<circle class="st3" cx="190.5" cy="341.2" r="9.9"/>
	<circle class="st3" cx="422" cy="271.7" r="5.9"/>
	<circle class="st3" cx="617.7" cy="137.6" r="7.7"/>
	<circle class="st3" cx="582.9" cy="163.5" r="10.4"/>
	<circle class="st4" cx="349.4" cy="272.8" r="4.8"/>
	<circle class="st4" cx="275.4" cy="191.7" r="5.2"/>
	<circle class="st4" cx="126.9" cy="285.9" r="5.2"/>
	<circle class="st4" cx="311.2" cy="40.4" r="7.1"/>
	<circle class="st4" cx="148.1" cy="453.4" r="3.3"/>
	<circle class="st4" cx="237.7" cy="447.6" r="5.7"/>
	<circle class="st4" cx="384.9" cy="413.3" r="6"/>
	<circle class="st4" cx="684" cy="134.9" r="5.6"/>
	<circle class="st4" cx="729.9" cy="183.1" r="3.9"/>
	<circle class="st4" cx="763" cy="223.9" r="4.8"/>
	<circle class="st4" cx="823.4" cy="327.9" r="3.6"/>
	<circle class="st4" cx="838.9" cy="366.7" r="3.5"/>
	<circle class="st4" cx="553.7" cy="309" r="5.9"/>
	<circle class="st5" cx="349.6" cy="165" r="10.7"/>
	<circle class="st5" cx="105.7" cy="442.1" r="7.9"/>
	<circle class="st5" cx="308.6" cy="436.3" r="8.4"/>
	<circle class="st5" cx="349" cy="425.5" r="3.3"/>
</g>
</svg>
